{
    "filename": "IPC-EB5531.json",
    "type": "IPC-EB5531",
    "spec": {
        "focal_length": 1.4,
        "channel_indx": 0,
        "resolution": "5M(2592×1944)/3M(2048×1536)/UXGA(1600×1200)/1.3M(1280×960)/D1(704×576/704×480)/CIF(352×288/352×240)"
    }
}
